…
```r
rm("mydf")
```

From ?tbl_df, "The main advantage to using a tbl_df over a regular data frame is the printing." Let's see what is meant by this. Type cran to print our tbl_df to the console.


```r
cran
```

```
## # A tibble: 225,468 x 11
##        X date  time    size r_version r_arch r_os  package version country ip_id
##    <int> <chr> <chr>  <int> <chr>     <chr>  <chr> <chr>   <chr>   <chr>   <int>
##  1     1 2014… 00:5… 8.06e4 3.1.0     x86_64 ming… htmlto… 0.2.4   US          1
##  2     2 2014… 00:5… 3.22e5 3.1.0     x86_64 ming… tseries 0.10-32 US          2
##  3     3 2014… 00:4… 7.48e5 3.1.0     x86_64 linu… party   1.0-15  US          3
##  4     4 2014… 00:4… 6.06e5 3.1.0     x86_64 linu… Hmisc   3.14-4  US          3
##  5     5 2014… 00:4… 7.98e4 3.0.2     x86_64 linu… digest  0.6.4   CA          4
##  6     6 2014… 00:4… 7.77e4 3.1.0     x86_64 linu… random… 4.6-7   US          3
##  7     7 2014… 00:4… 3.94e5 3.1.0     x86_64 linu… plyr    1.8.1   US          3
##  8     8 2014… 00:4… 2.82e4 3.0.2     x86_64 linu… whisker 0.3-2   US          5
##  9     9 2014… 00:5… 5.93e3 <NA>      <NA>   <NA>  Rcpp    0.10.4  CN          6
## 10    10 2014… 00:1… 2.21e6 3.0.2     x86_64 linu… hfligh… 0.1     US          7
## # … with 225,458 more rows
```
This output is much more informative and compact than what we would get if we printed the original data frame (mydf) to the console.

First, we are shown the class and dimensions of the dataset. Just below that, we get a preview of the data. Instead of attempting to print the entire dataset, dplyr just shows us the first 10 rows of data and only as many columns as fit neatly in our console. At the bottom, we see the names and classes for any variables that didn't fit on our screen.

According to the "Introduction to dplyr" vignette written by the package authors, "The dplyr philosophy is to have small functions that each do one thing well." Specifically, dplyr supplies five 'verbs' that cover most fundamental data manipulation tasks: select(), filter(), arrange(), mutate(), and summarize().

As may often be the case, particularly with larger datasets, we are only interested in some of the variables. Use select(cran, ip_id, package, country) to select only the ip_id, package, and country variables from the cran dataset.


```r
select(cran, ip_id, package, country)
```

```
## # A tibble: 225,468 x 3
##    ip_id package      country
##    <int> <chr>        <chr>  
##  1     1 htmltools    US     
##  2     2 tseries      US     
##  3     3 party        US     
##  4     3 Hmisc        US     
##  5     4 digest       CA     
##  6     3 randomForest US     
##  7     3 plyr         US     
##  8     5 whisker      US     
##  9     6 Rcpp         CN     
## 10     7 hflights     US     
## # … with 225,458 more rows
```
…
```
##  [1]  5  6  7  8  9 10 11 12 13 14 15 16 17 18 19 20
```

Normally, this notation is reserved for numbers, but select() allows you to specify a sequence of columns this way, which can save a bunch of typing. Use select(cran, r_arch:country) to select all columns starting from r_arch and ending with country.


```r
select(cran, r_arch:country)
```

```
## # A tibble: 225,468 x 5
##    r_arch r_os      package      version country
##    <chr>  <chr>     <chr>        <chr>   <chr>  
##  1 x86_64 mingw32   htmltools    0.2.4   US     
##  2 x86_64 mingw32   tseries      0.10-32 US     
##  3 x86_64 linux-gnu party        1.0-15  US     
##  4 x86_64 linux-gnu Hmisc        3.14-4  US     
##  5 x86_64 linux-gnu digest       0.6.4   CA     
##  6 x86_64 linux-gnu randomForest 4.6-7   US     
##  7 x86_64 linux-gnu plyr         1.8.1   US     
##  8 x86_64 linux-gnu whisker      0.3-2   US     
##  9 <NA>   <NA>      Rcpp         0.10.4  CN     
## 10 x86_64 linux-gnu hflights     0.1     US     
## # … with 225,458 more rows
```

We can also select the same columns in reverse order. Give it a try.


```r
select(cran, country:r_arch)
```

```
## # A tibble: 225,468 x 5
##    country version package      r_os      r_arch
##    <chr>   <chr>   <chr>        <chr>     <chr> 
##  1 US      0.2.4   htmltools    mingw32   x86_64
##  2 US      0.10-32 tseries      mingw32   x86_64
##  3 US      1.0-15  party        linux-gnu x86_64
##  4 US      3.14-4  Hmisc        linux-gnu x86_64
##  5 CA      0.6.4   digest       linux-gnu x86_64
##  6 US      4.6-7   randomForest linux-gnu x86_64
##  7 US      1.8.1   plyr         linux-gnu x86_64
##  8 US      0.3-2   whisker      linux-gnu x86_64
##  9 CN      0.10.4  Rcpp         <NA>      <NA>  
## 10 US      0.1     hflights     linux-gnu x86_64
## # … with 225,458 more rows
```

Print the entire dataset again, just to remind yourself of what it looks like. You can do this at anytime during the lesson.


```r
cran
```

```
## # A tibble: 225,468 x 11
##        X date  time    size r_version r_arch r_os  package version country ip_id
##    <int> <chr> <chr>  <int> <chr>     <chr>  <chr> <chr>   <chr>   <chr>   <int>
##  1     1 2014… 00:5… 8.06e4 3.1.0     x86_64 ming… htmlto… 0.2.4   US          1
##  2     2 2014… 00:5… 3.22e5 3.1.0     x86_64 ming… tseries 0.10-32 US          2
##  3     3 2014… 00:4… 7.48e5 3.1.0     x86_64 linu… party   1.0-15  US          3
##  4     4 2014… 00:4… 6.06e5 3.1.0     x86_64 linu… Hmisc   3.14-4  US          3
##  5     5 2014… 00:4… 7.98e4 3.0.2     x86_64 linu… digest  0.6.4   CA          4
##  6     6 2014… 00:4… 7.77e4 3.1.0     x86_64 linu… random… 4.6-7   US          3
##  7     7 2014… 00:4… 3.94e5 3.1.0     x86_64 linu… plyr    1.8.1   US          3
##  8     8 2014… 00:4… 2.82e4 3.0.2     x86_64 linu… whisker 0.3-2   US          5
##  9     9 2014… 00:5… 5.93e3 <NA>      <NA>   <NA>  Rcpp    0.10.4  CN          6
## 10    10 2014… 00:1… 2.21e6 3.0.2     x86_64 linu… hfligh… 0.1     US          7
## # … with 225,458 more rows
```

Instead of specifying the columns we want to keep, we can also specify the columns we want to throw away. To see how this works, do select(cran, -time) to omit the time column.


```r
select(cran, -time)
```

```
## # A tibble: 225,468 x 10
##        X date       size r_version r_arch r_os   package   version country ip_id
##    <int> <chr>     <int> <chr>     <chr>  <chr>  <chr>     <chr>   <chr>   <int>
##  1     1 2014-0…   80589 3.1.0     x86_64 mingw… htmltools 0.2.4   US          1
##  2     2 2014-0…  321767 3.1.0     x86_64 mingw… tseries   0.10-32 US          2
##  3     3 2014-0…  748063 3.1.0     x86_64 linux… party     1.0-15  US          3
##  4     4 2014-0…  606104 3.1.0     x86_64 linux… Hmisc     3.14-4  US          3
##  5     5 2014-0…   79825 3.0.2     x86_64 linux… digest    0.6.4   CA          4
##  6     6 2014-0…   77681 3.1.0     x86_64 linux… randomFo… 4.6-7   US          3
##  7     7 2014-0…  393754 3.1.0     x86_64 linux… plyr      1.8.1   US          3
##  8     8 2014-0…   28216 3.0.2     x86_64 linux… whisker   0.3-2   US          5
##  9     9 2014-0…    5928 <NA>      <NA>   <NA>   Rcpp      0.10.4  CN          6
## 10    10 2014-0… 2206029 3.0.2     x86_64 linux… hflights  0.1     US          7
## # … with 225,458 more rows
```
…
```
##  [1]  -5  -6  -7  -8  -9 -10 -11 -12 -13 -14 -15 -16 -17 -18 -19 -20
```

Use this knowledge to omit all columns X:size using select().


```r
select(cran, -(X:size))
```

```
## # A tibble: 225,468 x 7
##    r_version r_arch r_os      package      version country ip_id
##    <chr>     <chr>  <chr>     <chr>        <chr>   <chr>   <int>
##  1 3.1.0     x86_64 mingw32   htmltools    0.2.4   US          1
##  2 3.1.0     x86_64 mingw32   tseries      0.10-32 US          2
##  3 3.1.0     x86_64 linux-gnu party        1.0-15  US          3
##  4 3.1.0     x86_64 linux-gnu Hmisc        3.14-4  US          3
##  5 3.0.2     x86_64 linux-gnu digest       0.6.4   CA          4
##  6 3.1.0     x86_64 linux-gnu randomForest 4.6-7   US          3
##  7 3.1.0     x86_64 linux-gnu plyr         1.8.1   US          3
##  8 3.0.2     x86_64 linux-gnu whisker      0.3-2   US          5
##  9 <NA>      <NA>   <NA>      Rcpp         0.10.4  CN          6
## 10 3.0.2     x86_64 linux-gnu hflights     0.1     US          7
## # … with 225,458 more rows
```

Now that you know how to select a subset of columns using select(), a natural next question is "How do I select a subset of rows?" That's where the filter() function comes in.

Use filter(cran, package == "swirl") to select all rows for which the package variable is equal to "swirl". Be sure to use two equals signs side-by-side!


```r
filter(cran, package == "swirl")
```

```
## # A tibble: 820 x 11
##        X date  time    size r_version r_arch r_os  package version country ip_id
##    <int> <chr> <chr>  <int> <chr>     <chr>  <chr> <chr>   <chr>   <chr>   <int>
##  1    27 2014… 00:1… 105350 3.0.2     x86_64 ming… swirl   2.2.9   US         20
##  2   156 2014… 00:2…  41261 3.1.0     x86_64 linu… swirl   2.2.9   US         66
##  3   358 2014… 00:1… 105335 2.15.2    x86_64 ming… swirl   2.2.9   CA        115
##  4   593 2014… 00:5… 105465 3.1.0     x86_64 darw… swirl   2.2.9   MX        162
##  5   831 2014… 00:5… 105335 3.0.3     x86_64 ming… swirl   2.2.9   US         57
##  6   997 2014… 00:3…  41261 3.1.0     x86_64 ming… swirl   2.2.9   US         70
##  7  1023 2014… 00:3… 106393 3.1.0     x86_64 ming… swirl   2.2.9   BR        248
##  8  1144 2014… 00:0… 106534 3.0.2     x86_64 linu… swirl   2.2.9   US        261
##  9  1402 2014… 00:4…  41261 3.1.0     i386   ming… swirl   2.2.9   US        234
## 10  1424 2014… 00:4… 106393 3.1.0     x86_64 linu… swirl   2.2.9   US        301
## # … with 810 more rows
```

Again, note that filter() recognizes 'package' as a column of cran, without you having to explicitly specify cran$package.

The == operator asks whether the thing on the left is equal to the thing on the right. If yes, then it returns TRUE. If no, then FALSE. In this case, package is an entire vector (column) of values, so package == "swirl" returns a vector of TRUEs and FALSEs. filter() then returns only the rows of cran corresponding to the TRUEs.

You can specify as many conditions as you want, separated by commas. For example filter(cran, r_version == "3.1.1", country == "US") will return all rows of cran corresponding to downloads from users in the US running R version 3.1.1. Try it out.


```r
filter(cran, r_version == "3.1.1", country == "US")
```

```
## # A tibble: 1,588 x 11
##        X date  time    size r_version r_arch r_os  package version country ip_id
##    <int> <chr> <chr>  <int> <chr>     <chr>  <chr> <chr>   <chr>   <chr>   <int>
##  1  2216 2014… 00:4… 3.85e5 3.1.1     x86_64 darw… colors… 1.2-4   US        191
##  2 17332 2014… 03:3… 1.97e5 3.1.1     x86_64 darw… httr    0.3     US       1704
##  3 17465 2014… 03:2… 2.33e4 3.1.1     x86_64 darw… snow    0.3-13  US         62
##  4 18844 2014… 03:5… 1.91e5 3.1.1     x86_64 darw… maxLik  1.2-0   US       1533
##  5 30182 2014… 04:1… 7.77e4 3.1.1     i386   ming… random… 4.6-7   US        646
##  6 30193 2014… 04:0… 2.35e6 3.1.1     i386   ming… ggplot2 1.0.0   US          8
##  7 30195 2014… 04:0… 2.99e5 3.1.1     i386   ming… fExtre… 3010.81 US       2010
##  8 30217 2014… 04:3… 5.68e5 3.1.1     i386   ming… rJava   0.9-6   US         98
##  9 30245 2014… 04:1… 5.27e5 3.1.1     i386   ming… LPCM    0.44-8  US          8
## 10 30354 2014… 04:3… 1.76e6 3.1.1     i386   ming… mgcv    1.8-1   US       2122
## # … with 1,578 more rows
```

The conditions passed to filter() can make use of any of the standard comparison operators. Pull up the relevant documentation with ?Comparison (that's an uppercase C).

Edit your previous call to filter() to instead return rows corresponding to users in "IN" (India) running an R version that is less than or equal to "3.0.2". The up arrow on your keyboard may come in handy here. Don't forget your double quotes!


```r
filter(cran, r_version <= "3.0.2", country == "IN")
```

```
## # A tibble: 4,139 x 11
##        X date  time    size r_version r_arch r_os  package version country ip_id
##    <int> <chr> <chr>  <int> <chr>     <chr>  <chr> <chr>   <chr>   <chr>   <int>
##  1   348 2014… 00:4… 1.02e7 3.0.0     x86_64 ming… BH      1.54.0… IN        112
##  2  9990 2014… 02:1… 3.97e5 3.0.2     x86_64 linu… equate… 1.1     IN       1054
##  3  9991 2014… 02:1… 1.19e5 3.0.2     x86_64 linu… ggdend… 0.1-14  IN       1054
##  4  9992 2014… 02:1… 8.18e4 3.0.2     x86_64 linu… dfcrm   0.2-2   IN       1054
##  5 10022 2014… 02:1… 1.56e6 2.15.0    x86_64 ming… RcppAr… 0.4.32… IN       1060
##  6 10023 2014… 02:1… 1.18e6 2.15.1    i686   linu… foreca… 5.4     IN       1060
##  7 10189 2014… 02:3… 9.09e5 3.0.2     x86_64 linu… editru… 2.7.2   IN       1054
##  8 10199 2014… 02:3… 1.78e5 3.0.2     x86_64 linu… energy  1.6.1   IN       1054
##  9 10200 2014… 02:3… 5.18e4 3.0.2     x86_64 linu… ENmisc  1.2-7   IN       1054
## 10 10201 2014… 02:3… 6.52e4 3.0.2     x86_64 linu… entropy 1.2.0   IN       1054
## # … with 4,129 more rows
```

Our last two calls to filter() requested all rows for which some condition AND another condition were TRUE. We can also request rows for which EITHER one condition OR another condition are TRUE. For example, filter(cran, country == "US" | country == "IN") will gives us all rows for which the country variable equals either "US" or "IN". Give it a go.


```r
filter(cran, country == "US" | country == "IN")
```

```
## # A tibble: 95,283 x 11
##        X date  time    size r_version r_arch r_os  package version country ip_id
##    <int> <chr> <chr>  <int> <chr>     <chr>  <chr> <chr>   <chr>   <chr>   <int>
##  1     1 2014… 00:5… 8.06e4 3.1.0     x86_64 ming… htmlto… 0.2.4   US          1
##  2     2 2014… 00:5… 3.22e5 3.1.0     x86_64 ming… tseries 0.10-32 US          2
##  3     3 2014… 00:4… 7.48e5 3.1.0     x86_64 linu… party   1.0-15  US          3
##  4     4 2014… 00:4… 6.06e5 3.1.0     x86_64 linu… Hmisc   3.14-4  US          3
##  5     6 2014… 00:4… 7.77e4 3.1.0     x86_64 linu… random… 4.6-7   US          3
##  6     7 2014… 00:4… 3.94e5 3.1.0     x86_64 linu… plyr    1.8.1   US          3
##  7     8 2014… 00:4… 2.82e4 3.0.2     x86_64 linu… whisker 0.3-2   US          5
##  8    10 2014… 00:1… 2.21e6 3.0.2     x86_64 linu… hfligh… 0.1     US          7
##  9    11 2014… 00:1… 5.27e5 3.0.2     x86_64 linu… LPCM    0.44-8  US          8
## 10    12 2014… 00:1… 2.35e6 2.14.1    x86_64 linu… ggplot2 1.0.0   US          8
## # … with 95,273 more rows
```

Now, use filter() to fetch all rows for which size is strictly greater than (>) 100500 (no quotes, since size is numeric) AND r_os equals "linux-gnu". Hint: You are passing three arguments to filter(): the name of the dataset, the first condition, and the second condition.


```r
filter(cran, size > 100500, r_os == "linux-gnu")
```

```
## # A tibble: 33,683 x 11
##        X date  time    size r_version r_arch r_os  package version country ip_id
##    <int> <chr> <chr>  <int> <chr>     <chr>  <chr> <chr>   <chr>   <chr>   <int>
##  1     3 2014… 00:4… 7.48e5 3.1.0     x86_64 linu… party   1.0-15  US          3
##  2     4 2014… 00:4… 6.06e5 3.1.0     x86_64 linu… Hmisc   3.14-4  US          3
##  3     7 2014… 00:4… 3.94e5 3.1.0     x86_64 linu… plyr    1.8.1   US          3
##  4    10 2014… 00:1… 2.21e6 3.0.2     x86_64 linu… hfligh… 0.1     US          7
##  5    11 2014… 00:1… 5.27e5 3.0.2     x86_64 linu… LPCM    0.44-8  US          8
##  6    12 2014… 00:1… 2.35e6 2.14.1    x86_64 linu… ggplot2 1.0.0   US          8
##  7    14 2014… 00:1… 3.10e6 3.0.2     x86_64 linu… Rcpp    0.9.7   VE         10
##  8    15 2014… 00:1… 5.68e5 3.1.0     x86_64 linu… rJava   0.9-6   US         11
##  9    16 2014… 00:1… 1.60e6 3.1.0     x86_64 linu… RSQLite 0.11.4  US          7
## 10    18 2014… 00:2… 1.87e5 3.1.0     x86_64 linu… ipred   0.9-3   DE         13
## # … with 33,673 more rows
```
…
```
## [1]  TRUE  TRUE FALSE  TRUE
```

Okay, ready to put all of this together? Use filter() to return all rows of cran for which r_version is NOT NA. Hint: You will need to use !is.na() as part of your second argument to filter().


```r
filter(cran, !is.na(r_version))
```

```
## # A tibble: 207,205 x 11
##        X date  time    size r_version r_arch r_os  package version country ip_id
##    <int> <chr> <chr>  <int> <chr>     <chr>  <chr> <chr>   <chr>   <chr>   <int>
##  1     1 2014… 00:5… 8.06e4 3.1.0     x86_64 ming… htmlto… 0.2.4   US          1
##  2     2 2014… 00:5… 3.22e5 3.1.0     x86_64 ming… tseries 0.10-32 US          2
##  3     3 2014… 00:4… 7.48e5 3.1.0     x86_64 linu… party   1.0-15  US          3
##  4     4 2014… 00:4… 6.06e5 3.1.0     x86_64 linu… Hmisc   3.14-4  US          3
##  5     5 2014… 00:4… 7.98e4 3.0.2     x86_64 linu… digest  0.6.4   CA          4
##  6     6 2014… 00:4… 7.77e4 3.1.0     x86_64 linu… random… 4.6-7   US          3
##  7     7 2014… 00:4… 3.94e5 3.1.0     x86_64 linu… plyr    1.8.1   US          3
##  8     8 2014… 00:4… 2.82e4 3.0.2     x86_64 linu… whisker 0.3-2   US          5
##  9    10 2014… 00:1… 2.21e6 3.0.2     x86_64 linu… hfligh… 0.1     US          7
## 10    11 2014… 00:1… 5.27e5 3.0.2     x86_64 linu… LPCM    0.44-8  US          8
## # … with 207,195 more rows
```
…
```r
cran2 <- select(cran, size:ip_id)
```

Now, to order the ROWS of cran2 so that ip_id is in ascending order (from small to large), type arrange(cran2, ip_id). You may want to make your console wide enough so that you can see ip_id, which is the last column.


```r
arrange(cran2, ip_id)
```

```
## # A tibble: 225,468 x 8
##      size r_version r_arch r_os         package     version country ip_id
##     <int> <chr>     <chr>  <chr>        <chr>       <chr>   <chr>   <int>
##  1  80589 3.1.0     x86_64 mingw32      htmltools   0.2.4   US          1
##  2 180562 3.0.2     x86_64 mingw32      yaml        2.1.13  US          1
##  3 190120 3.1.0     i386   mingw32      babel       0.2-6   US          1
##  4 321767 3.1.0     x86_64 mingw32      tseries     0.10-32 US          2
##  5  52281 3.0.3     x86_64 darwin10.8.0 quadprog    1.5-5   US          2
##  6 876702 3.1.0     x86_64 linux-gnu    zoo         1.7-11  US          2
##  7 321764 3.0.2     x86_64 linux-gnu    tseries     0.10-32 US          2
##  8 876702 3.1.0     x86_64 linux-gnu    zoo         1.7-11  US          2
##  9 321768 3.1.0     x86_64 mingw32      tseries     0.10-32 US          2
## 10 784093 3.1.0     x86_64 linux-gnu    strucchange 1.5-0   US          2
## # … with 225,458 more rows
```

To do the same, but in descending order, change the second argument to desc(ip_id), where desc() stands for 'descending'. Go ahead.


```r
arrange(cran2, desc(ip_id))
```

```
## # A tibble: 225,468 x 8
##       size r_version r_arch r_os         package      version country ip_id
##      <int> <chr>     <chr>  <chr>        <chr>        <chr>   <chr>   <int>
##  1    5933 <NA>      <NA>   <NA>         CPE          1.4.2   CN      13859
##  2  569241 3.1.0     x86_64 mingw32      multcompView 0.1-5   US      13858
##  3  228444 3.1.0     x86_64 mingw32      tourr        0.5.3   NZ      13857
##  4  308962 3.1.0     x86_64 darwin13.1.0 ctv          0.7-9   CN      13856
##  5  950964 3.0.3     i386   mingw32      knitr        1.6     CA      13855
##  6   80185 3.0.3     i386   mingw32      htmltools    0.2.4   CA      13855
##  7 1431750 3.0.3     i386   mingw32      shiny        0.10.0  CA      13855
##  8 2189695 3.1.0     x86_64 mingw32      RMySQL       0.9-3   US      13854
##  9 4818024 3.1.0     i386   mingw32      igraph       0.7.1   US      13853
## 10  197495 3.1.0     x86_64 mingw32      coda         0.16-1  US      13852
## # … with 225,458 more rows
```
…
