…
As we've done before, we'll build up a series of chained commands, using functions from both tidyr and dplyr. 

```{r}
#sat %```{r}%
#        select(-contains("total")) %```{r}%
#        gather(part_sex, count, -score_range) %```{r}%
#        separate(part_sex, c("part", "sex")) %```{r}%
#        group_by(part, sex) %```{r}%
#        mutate(total = sum(count),
#               prop = count / total
#        ) %```{r}% print
```

# A tibble: 36 x 6
# Groups:   part, sex [6]
   score_range part  sex    count  total   prop
   <chr```{r}       <chr```{r} <chr```{r}  <int```{r}  <int```{r}  <dbl```{r}
 1 700-800     read  male   40151 776092 0.0517
 2 600-690     read  male  121950 776092 0.157 
 3 500-590     read  male  227141 776092 0.293 
 4 400-490     read  male  242554 776092 0.313 
 5 300-390     read  male  113568 776092 0.146 
 6 200-290     read  male   30728 776092 0.0396
 7 700-800     read  fem    38898 883955 0.0440
 8 600-690     read  fem   126084 883955 0.143 
 9 500-590     read  fem   259553 883955 0.294 
10 400-490     read  fem   296793 883955 0.336 
# … with 26 more rows
…
